{
	"info": {
		"_postman_id": "7663bed5-b923-4dff-b915-532cc36c3d37",
		"name": "ideatech",
		"schema": "https://schema.getpostman.com/json/collection/v2.1.0/collection.json"
	},
	"item": [
		{
			"name": "register",
			"request": {
				"method": "GET",
				"header": [],
				"url": {
					"raw": "http://apps.idealtech.com.my/api/member_register.php?security_code=90af0fc8532a32f41b69d7097f2f1ca6&name=tangolim&email=tangolim@hotmail.com&password=791262526&contact=0123333333",
					"protocol": "http",
					"host": [
						"apps",
						"idealtech",
						"com",
						"my"
					],
					"path": [
						"api",
						"member_register.php"
					],
					"query": [
						{
							"key": "security_code",
							"value": "90af0fc8532a32f41b69d7097f2f1ca6"
						},
						{
							"key": "name",
							"value": "tangolim"
						},
						{
							"key": "email",
							"value": "tangolim@hotmail.com"
						},
						{
							"key": "password",
							"value": "791262526"
						},
						{
							"key": "contact",
							"value": "0123333333"
						}
					]
				}
			},
			"response": []
		},
		{
			"name": "register tac code active",
			"request": {
				"method": "GET",
				"header": [],
				"url": {
					"raw": "http://apps.idealtech.com.my/api/member_verifiy.php?security_code=90af0fc8532a32f41b69d7097f2f1ca6&MMID=8BFBD43F-AB65-A69B-F079-4751AEF4C2E0&tac=748854",
					"protocol": "http",
					"host": [
						"apps",
						"idealtech",
						"com",
						"my"
					],
					"path": [
						"api",
						"member_verifiy.php"
					],
					"query": [
						{
							"key": "security_code",
							"value": "90af0fc8532a32f41b69d7097f2f1ca6"
						},
						{
							"key": "MMID",
							"value": "8BFBD43F-AB65-A69B-F079-4751AEF4C2E0"
						},
						{
							"key": "tac",
							"value": "748854"
						}
					]
				}
			},
			"response": []
		},
		{
			"name": "generate register tac code",
			"request": {
				"method": "GET",
				"header": [],
				"url": {
					"raw": "http://apps.idealtech.com.my/api/member_recode.php?security_code=90af0fc8532a32f41b69d7097f2f1ca6&MMID=4234C3A3-61AC-BFCC-BECC-BAF96E1FA4D4",
					"protocol": "http",
					"host": [
						"apps",
						"idealtech",
						"com",
						"my"
					],
					"path": [
						"api",
						"member_recode.php"
					],
					"query": [
						{
							"key": "security_code",
							"value": "90af0fc8532a32f41b69d7097f2f1ca6"
						},
						{
							"key": "MMID",
							"value": "4234C3A3-61AC-BFCC-BECC-BAF96E1FA4D4"
						}
					]
				}
			},
			"response": []
		},
		{
			"name": "add image test",
			"request": {
				"method": "GET",
				"header": [],
				"url": {
					"raw": "http://apps.idealtech.com.my/Project/upload_image.php",
					"protocol": "http",
					"host": [
						"apps",
						"idealtech",
						"com",
						"my"
					],
					"path": [
						"Project",
						"upload_image.php"
					]
				}
			},
			"response": []
		},
		{
			"name": "login",
			"request": {
				"method": "GET",
				"header": [],
				"url": {
					"raw": "http://apps.idealtech.com.my/api/member_login.php?security_code=90af0fc8532a32f41b69d7097f2f1ca6&contact=0123706400&password=111111",
					"protocol": "http",
					"host": [
						"apps",
						"idealtech",
						"com",
						"my"
					],
					"path": [
						"api",
						"member_login.php"
					],
					"query": [
						{
							"key": "security_code",
							"value": "90af0fc8532a32f41b69d7097f2f1ca6"
						},
						{
							"key": "contact",
							"value": "0123706400"
						},
						{
							"key": "password",
							"value": "111111"
						}
					]
				}
			},
			"response": []
		},
		{
			"name": "forget password",
			"request": {
				"method": "GET",
				"header": [],
				"url": {
					"raw": "http://apps.idealtech.com.my/api/forgot_password.php?security_code=90af0fc8532a32f41b69d7097f2f1ca6&contact=0162096543",
					"protocol": "http",
					"host": [
						"apps",
						"idealtech",
						"com",
						"my"
					],
					"path": [
						"api",
						"forgot_password.php"
					],
					"query": [
						{
							"key": "security_code",
							"value": "90af0fc8532a32f41b69d7097f2f1ca6"
						},
						{
							"key": "contact",
							"value": "0162096543"
						}
					]
				}
			},
			"response": []
		},
		{
			"name": "forget pass tac code",
			"request": {
				"method": "GET",
				"header": [],
				"url": {
					"raw": "http://apps.idealtech.com.my/api/forgot_password_reset.php?security_code=90af0fc8532a32f41b69d7097f2f1ca6&MMID=3EDB323B-21C7-A7B9-3253-A265E2588E36&tac=549871",
					"protocol": "http",
					"host": [
						"apps",
						"idealtech",
						"com",
						"my"
					],
					"path": [
						"api",
						"forgot_password_reset.php"
					],
					"query": [
						{
							"key": "security_code",
							"value": "90af0fc8532a32f41b69d7097f2f1ca6"
						},
						{
							"key": "MMID",
							"value": "3EDB323B-21C7-A7B9-3253-A265E2588E36"
						},
						{
							"key": "tac",
							"value": "549871"
						}
					]
				}
			},
			"response": []
		},
		{
			"name": "forget pass generate tac code",
			"request": {
				"method": "GET",
				"header": [],
				"url": {
					"raw": "http://apps.idealtech.com.my/api/forgot_password_recode.php?security_code=90af0fc8532a32f41b69d7097f2f1ca6&MMID=4234C3A3-61AC-BFCC-BECC-BAF96E1FA4D4",
					"protocol": "http",
					"host": [
						"apps",
						"idealtech",
						"com",
						"my"
					],
					"path": [
						"api",
						"forgot_password_recode.php"
					],
					"query": [
						{
							"key": "security_code",
							"value": "90af0fc8532a32f41b69d7097f2f1ca6"
						},
						{
							"key": "MMID",
							"value": "4234C3A3-61AC-BFCC-BECC-BAF96E1FA4D4"
						}
					]
				}
			},
			"response": []
		},
		{
			"name": "update profile",
			"request": {
				"method": "POST",
				"header": [],
				"url": {
					"raw": "http://apps.idealtech.com.my/api/member_update.php?security_code=90af0fc8532a32f41b69d7097f2f1ca6&name=adsad&email=asdsad&MMID=3EDB323B-21C7-A7B9-3253-A265E2588E36\n&image=",
					"protocol": "http",
					"host": [
						"apps",
						"idealtech",
						"com",
						"my"
					],
					"path": [
						"api",
						"member_update.php"
					],
					"query": [
						{
							"key": "security_code",
							"value": "90af0fc8532a32f41b69d7097f2f1ca6"
						},
						{
							"key": "name",
							"value": "adsad"
						},
						{
							"key": "email",
							"value": "asdsad"
						},
						{
							"key": "MMID",
							"value": "3EDB323B-21C7-A7B9-3253-A265E2588E36\n"
						},
						{
							"key": "image",
							"value": ""
						}
					]
				}
			},
			"response": []
		},
		{
			"name": "reset password",
			"request": {
				"method": "GET",
				"header": [],
				"url": {
					"raw": "http://apps.idealtech.com.my/api/member_reset_password.php?security_code=90af0fc8532a32f41b69d7097f2f1ca6&MMID=3EDB323B-21C7-A7B9-3253-A265E2588E36&password=111111",
					"protocol": "http",
					"host": [
						"apps",
						"idealtech",
						"com",
						"my"
					],
					"path": [
						"api",
						"member_reset_password.php"
					],
					"query": [
						{
							"key": "security_code",
							"value": "90af0fc8532a32f41b69d7097f2f1ca6"
						},
						{
							"key": "MMID",
							"value": "3EDB323B-21C7-A7B9-3253-A265E2588E36"
						},
						{
							"key": "password",
							"value": "111111"
						}
					]
				}
			},
			"response": []
		},
		{
			"name": "member profile",
			"request": {
				"method": "GET",
				"header": [],
				"url": {
					"raw": "http://apps.idealtech.com.my/api/member_profile.php?security_code=90af0fc8532a32f41b69d7097f2f1ca6&MMID=3EDB323B-21C7-A7B9-3253-A265E2588E36",
					"protocol": "http",
					"host": [
						"apps",
						"idealtech",
						"com",
						"my"
					],
					"path": [
						"api",
						"member_profile.php"
					],
					"query": [
						{
							"key": "security_code",
							"value": "90af0fc8532a32f41b69d7097f2f1ca6"
						},
						{
							"key": "MMID",
							"value": "3EDB323B-21C7-A7B9-3253-A265E2588E36"
						}
					]
				}
			},
			"response": []
		},
		{
			"name": "feedback",
			"request": {
				"method": "POST",
				"header": [],
				"url": {
					"raw": "http://apps.idealtech.com.my/api/member_message_add.php?security_code=90af0fc8532a32f41b69d7097f2f1ca6&MMID=15B64DBC-59D8-715A-D26A-62E56A95E3A1&message=",
					"protocol": "http",
					"host": [
						"apps",
						"idealtech",
						"com",
						"my"
					],
					"path": [
						"api",
						"member_message_add.php"
					],
					"query": [
						{
							"key": "security_code",
							"value": "90af0fc8532a32f41b69d7097f2f1ca6"
						},
						{
							"key": "MMID",
							"value": "15B64DBC-59D8-715A-D26A-62E56A95E3A1"
						},
						{
							"key": "message",
							"value": ""
						}
					]
				}
			},
			"response": []
		},
		{
			"name": "feedback issue message",
			"request": {
				"method": "GET",
				"header": [],
				"url": {
					"raw": "http://apps.idealtech.com.my/api/member_message_list.php?security_code=90af0fc8532a32f41b69d7097f2f1ca6&MMID=3EDB323B-21C7-A7B9-3253-A265E2588E36\n",
					"protocol": "http",
					"host": [
						"apps",
						"idealtech",
						"com",
						"my"
					],
					"path": [
						"api",
						"member_message_list.php"
					],
					"query": [
						{
							"key": "security_code",
							"value": "90af0fc8532a32f41b69d7097f2f1ca6"
						},
						{
							"key": "MMID",
							"value": "3EDB323B-21C7-A7B9-3253-A265E2588E36\n"
						}
					]
				}
			},
			"response": []
		},
		{
			"name": "Add  Purchase Record",
			"request": {
				"method": "POST",
				"header": [],
				"url": {
					"raw": "http://apps.idealtech.com.my/api/member_purchase_record_add.php?security_code=90af0fc8532a32f41b69d7097f2f1ca6&MMID=3EDB323B-21C7-A7B9-3253-A265E2588E36&invno=D00123E&wp_date=2019-10-30",
					"protocol": "http",
					"host": [
						"apps",
						"idealtech",
						"com",
						"my"
					],
					"path": [
						"api",
						"member_purchase_record_add.php"
					],
					"query": [
						{
							"key": "security_code",
							"value": "90af0fc8532a32f41b69d7097f2f1ca6"
						},
						{
							"key": "MMID",
							"value": "3EDB323B-21C7-A7B9-3253-A265E2588E36"
						},
						{
							"key": "invno",
							"value": "D00123E"
						},
						{
							"key": "wp_date",
							"value": "2019-10-30"
						}
					]
				}
			},
			"response": []
		},
		{
			"name": "Purchase Record List",
			"request": {
				"method": "GET",
				"header": [],
				"url": {
					"raw": "http://apps.idealtech.com.my/api/member_purchase_record_list.php?security_code=90af0fc8532a32f41b69d7097f2f1ca6&MMID=3EDB323B-21C7-A7B9-3253-A265E2588E36",
					"protocol": "http",
					"host": [
						"apps",
						"idealtech",
						"com",
						"my"
					],
					"path": [
						"api",
						"member_purchase_record_list.php"
					],
					"query": [
						{
							"key": "security_code",
							"value": "90af0fc8532a32f41b69d7097f2f1ca6"
						},
						{
							"key": "MMID",
							"value": "3EDB323B-21C7-A7B9-3253-A265E2588E36"
						}
					]
				}
			},
			"response": []
		},
		{
			"name": "Purchase Record Delete",
			"request": {
				"method": "GET",
				"header": [],
				"url": {
					"raw": "http://apps.idealtech.com.my/api/member_purchase_record_del.php?security_code=90af0fc8532a32f41b69d7097f2f1ca6&MMID=15B64DBC-59D8-715A-D26A-62E56A95E3A1&inv_no=",
					"protocol": "http",
					"host": [
						"apps",
						"idealtech",
						"com",
						"my"
					],
					"path": [
						"api",
						"member_purchase_record_del.php"
					],
					"query": [
						{
							"key": "security_code",
							"value": "90af0fc8532a32f41b69d7097f2f1ca6"
						},
						{
							"key": "MMID",
							"value": "15B64DBC-59D8-715A-D26A-62E56A95E3A1"
						},
						{
							"key": "inv_no",
							"value": ""
						}
					]
				}
			},
			"response": []
		},
		{
			"name": "gallery ",
			"request": {
				"method": "GET",
				"header": [],
				"url": {
					"raw": "http://apps.idealtech.com.my/api/gallery_list.php?security_code=90af0fc8532a32f41b69d7097f2f1ca6&limit=20&offset=1",
					"protocol": "http",
					"host": [
						"apps",
						"idealtech",
						"com",
						"my"
					],
					"path": [
						"api",
						"gallery_list.php"
					],
					"query": [
						{
							"key": "security_code",
							"value": "90af0fc8532a32f41b69d7097f2f1ca6"
						},
						{
							"key": "limit",
							"value": "20"
						},
						{
							"key": "offset",
							"value": "1"
						}
					]
				}
			},
			"response": []
		},
		{
			"name": "gallery add like",
			"request": {
				"method": "GET",
				"header": [],
				"url": {
					"raw": "http://apps.idealtech.com.my/api/gallery_add_like.php?security_code=90af0fc8532a32f41b69d7097f2f1ca6&MMID=3EDB323B-21C7-A7B9-3253-A265E2588E36&photo_id=117",
					"protocol": "http",
					"host": [
						"apps",
						"idealtech",
						"com",
						"my"
					],
					"path": [
						"api",
						"gallery_add_like.php"
					],
					"query": [
						{
							"key": "security_code",
							"value": "90af0fc8532a32f41b69d7097f2f1ca6"
						},
						{
							"key": "MMID",
							"value": "3EDB323B-21C7-A7B9-3253-A265E2588E36"
						},
						{
							"key": "photo_id",
							"value": "117"
						}
					]
				}
			},
			"response": []
		},
		{
			"name": "gallery add comment",
			"request": {
				"method": "GET",
				"header": [],
				"url": {
					"raw": "http://apps.idealtech.com.my/api/gallery_add_comment.php?security_code=90af0fc8532a32f41b69d7097f2f1ca6&MMID=15B64DBC-59D8-715A-D26A-62E56A95E3A1&photo_id=5&comment=",
					"protocol": "http",
					"host": [
						"apps",
						"idealtech",
						"com",
						"my"
					],
					"path": [
						"api",
						"gallery_add_comment.php"
					],
					"query": [
						{
							"key": "security_code",
							"value": "90af0fc8532a32f41b69d7097f2f1ca6"
						},
						{
							"key": "MMID",
							"value": "15B64DBC-59D8-715A-D26A-62E56A95E3A1"
						},
						{
							"key": "photo_id",
							"value": "5"
						},
						{
							"key": "comment",
							"value": ""
						}
					]
				}
			},
			"response": []
		},
		{
			"name": "gallery add post",
			"request": {
				"method": "POST",
				"header": [],
				"url": {
					"raw": "http://apps.idealtech.com.my/api/member_gallery_add.php?security_code=90af0fc8532a32f41b69d7097f2f1ca6&MMID=15B64DBC-59D8-715A-D26A-62E56A95E3A1&gp_title=test&content=im test",
					"protocol": "http",
					"host": [
						"apps",
						"idealtech",
						"com",
						"my"
					],
					"path": [
						"api",
						"member_gallery_add.php"
					],
					"query": [
						{
							"key": "security_code",
							"value": "90af0fc8532a32f41b69d7097f2f1ca6"
						},
						{
							"key": "MMID",
							"value": "15B64DBC-59D8-715A-D26A-62E56A95E3A1"
						},
						{
							"key": "gp_title",
							"value": "test"
						},
						{
							"key": "content",
							"value": "im test"
						}
					]
				}
			},
			"response": []
		},
		{
			"name": "gallery delete photo",
			"request": {
				"method": "GET",
				"header": [],
				"url": {
					"raw": "http://apps.idealtech.com.my/api/member_gallery_del.php?security_code=90af0fc8532a32f41b69d7097f2f1ca6&MMID=15B64DBC-59D8-715A-D26A-62E56A95E3A1&photo_id=CANNOT BLANK",
					"protocol": "http",
					"host": [
						"apps",
						"idealtech",
						"com",
						"my"
					],
					"path": [
						"api",
						"member_gallery_del.php"
					],
					"query": [
						{
							"key": "security_code",
							"value": "90af0fc8532a32f41b69d7097f2f1ca6"
						},
						{
							"key": "MMID",
							"value": "15B64DBC-59D8-715A-D26A-62E56A95E3A1"
						},
						{
							"key": "photo_id",
							"value": "CANNOT BLANK"
						}
					]
				}
			},
			"response": []
		},
		{
			"name": "gallery  detail",
			"request": {
				"method": "GET",
				"header": [],
				"url": {
					"raw": "http://apps.idealtech.com.my/api/gallery_detail.php?security_code=90af0fc8532a32f41b69d7097f2f1ca6&photo_id=117&MMID=3EDB323B-21C7-A7B9-3253-A265E2588E36",
					"protocol": "http",
					"host": [
						"apps",
						"idealtech",
						"com",
						"my"
					],
					"path": [
						"api",
						"gallery_detail.php"
					],
					"query": [
						{
							"key": "security_code",
							"value": "90af0fc8532a32f41b69d7097f2f1ca6"
						},
						{
							"key": "photo_id",
							"value": "117"
						},
						{
							"key": "limit",
							"value": "20",
							"disabled": true
						},
						{
							"key": "offset",
							"value": "1",
							"disabled": true
						},
						{
							"key": "MMID",
							"value": "3EDB323B-21C7-A7B9-3253-A265E2588E36"
						}
					]
				}
			},
			"response": []
		},
		{
			"name": "my post list",
			"request": {
				"method": "GET",
				"header": [],
				"url": {
					"raw": "http://apps.idealtech.com.my/api/member_gallery_list.php?security_code=90af0fc8532a32f41b69d7097f2f1ca6&MMID=3EDB323B-21C7-A7B9-3253-A265E2588E36",
					"protocol": "http",
					"host": [
						"apps",
						"idealtech",
						"com",
						"my"
					],
					"path": [
						"api",
						"member_gallery_list.php"
					],
					"query": [
						{
							"key": "security_code",
							"value": "90af0fc8532a32f41b69d7097f2f1ca6"
						},
						{
							"key": "MMID",
							"value": "3EDB323B-21C7-A7B9-3253-A265E2588E36"
						},
						{
							"key": "limit",
							"value": "50",
							"disabled": true
						},
						{
							"key": "offset",
							"value": "10",
							"disabled": true
						}
					]
				}
			},
			"response": []
		},
		{
			"name": "Articles List API",
			"request": {
				"method": "GET",
				"header": [],
				"url": {
					"raw": "http://apps.idealtech.com.my/api/articles_list.php?limit=50&security_code=90af0fc8532a32f41b69d7097f2f1ca6",
					"protocol": "http",
					"host": [
						"apps",
						"idealtech",
						"com",
						"my"
					],
					"path": [
						"api",
						"articles_list.php"
					],
					"query": [
						{
							"key": "limit",
							"value": "50"
						},
						{
							"key": "security_code",
							"value": "90af0fc8532a32f41b69d7097f2f1ca6"
						},
						{
							"key": "offset",
							"value": "1",
							"disabled": true
						}
					]
				}
			},
			"response": []
		},
		{
			"name": "Articles Content API",
			"request": {
				"method": "GET",
				"header": [],
				"url": {
					"raw": "http://apps.idealtech.com.my/api/articles.php?security_code=90af0fc8532a32f41b69d7097f2f1ca6&article_id=8",
					"protocol": "http",
					"host": [
						"apps",
						"idealtech",
						"com",
						"my"
					],
					"path": [
						"api",
						"articles.php"
					],
					"query": [
						{
							"key": "security_code",
							"value": "90af0fc8532a32f41b69d7097f2f1ca6"
						},
						{
							"key": "article_id",
							"value": "8"
						}
					]
				}
			},
			"response": []
		},
		{
			"name": "Promotion Home API ",
			"request": {
				"method": "GET",
				"header": [],
				"url": {
					"raw": "http://apps.idealtech.com.my/api/promotion_home.php?security_code=90af0fc8532a32f41b69d7097f2f1ca6",
					"protocol": "http",
					"host": [
						"apps",
						"idealtech",
						"com",
						"my"
					],
					"path": [
						"api",
						"promotion_home.php"
					],
					"query": [
						{
							"key": "security_code",
							"value": "90af0fc8532a32f41b69d7097f2f1ca6"
						},
						{
							"key": "limit",
							"value": "10",
							"disabled": true
						},
						{
							"key": "offset",
							"value": "1",
							"disabled": true
						}
					]
				}
			},
			"response": []
		},
		{
			"name": "Promotion API",
			"request": {
				"method": "GET",
				"header": [],
				"url": {
					"raw": "http://apps.idealtech.com.my/api/promotion.php?security_code=90af0fc8532a32f41b69d7097f2f1ca6&limit=20&offset=1",
					"protocol": "http",
					"host": [
						"apps",
						"idealtech",
						"com",
						"my"
					],
					"path": [
						"api",
						"promotion.php"
					],
					"query": [
						{
							"key": "security_code",
							"value": "90af0fc8532a32f41b69d7097f2f1ca6"
						},
						{
							"key": "limit",
							"value": "20"
						},
						{
							"key": "offset",
							"value": "1"
						}
					]
				}
			},
			"response": []
		},
		{
			"name": "Latest Product Home API",
			"request": {
				"method": "GET",
				"header": [],
				"url": {
					"raw": "http://apps.idealtech.com.my/api/latest_product_home.php?security_code=90af0fc8532a32f41b69d7097f2f1ca6&limit=10",
					"protocol": "http",
					"host": [
						"apps",
						"idealtech",
						"com",
						"my"
					],
					"path": [
						"api",
						"latest_product_home.php"
					],
					"query": [
						{
							"key": "security_code",
							"value": "90af0fc8532a32f41b69d7097f2f1ca6"
						},
						{
							"key": "limit",
							"value": "10"
						},
						{
							"key": "offset",
							"value": "1",
							"disabled": true
						}
					]
				}
			},
			"response": []
		},
		{
			"name": "Latest Product API",
			"request": {
				"method": "GET",
				"header": [],
				"url": {
					"raw": "http://apps.idealtech.com.my/api/latest_product.php?security_code=90af0fc8532a32f41b69d7097f2f1ca6&limit=20&offset=2",
					"protocol": "http",
					"host": [
						"apps",
						"idealtech",
						"com",
						"my"
					],
					"path": [
						"api",
						"latest_product.php"
					],
					"query": [
						{
							"key": "security_code",
							"value": "90af0fc8532a32f41b69d7097f2f1ca6"
						},
						{
							"key": "limit",
							"value": "20"
						},
						{
							"key": "offset",
							"value": "2"
						}
					]
				}
			},
			"response": []
		},
		{
			"name": "Status Color",
			"request": {
				"method": "GET",
				"header": [],
				"url": {
					"raw": "http://apps.idealtech.com.my/api/member_status_color.php?security_code=90af0fc8532a32f41b69d7097f2f1ca6&MMID=3EDB323B-21C7-A7B9-3253-A265E2588E36",
					"protocol": "http",
					"host": [
						"apps",
						"idealtech",
						"com",
						"my"
					],
					"path": [
						"api",
						"member_status_color.php"
					],
					"query": [
						{
							"key": "security_code",
							"value": "90af0fc8532a32f41b69d7097f2f1ca6"
						},
						{
							"key": "MMID",
							"value": "3EDB323B-21C7-A7B9-3253-A265E2588E36"
						}
					]
				}
			},
			"response": []
		},
		{
			"name": "Gallery Home AP",
			"request": {
				"method": "GET",
				"header": [],
				"url": {
					"raw": "http://apps.idealtech.com.my/api/gallery_home.php?security_code=90af0fc8532a32f41b69d7097f2f1ca6&limit=10&offset=1",
					"protocol": "http",
					"host": [
						"apps",
						"idealtech",
						"com",
						"my"
					],
					"path": [
						"api",
						"gallery_home.php"
					],
					"query": [
						{
							"key": "security_code",
							"value": "90af0fc8532a32f41b69d7097f2f1ca6"
						},
						{
							"key": "limit",
							"value": "10"
						},
						{
							"key": "offset",
							"value": "1"
						}
					]
				}
			},
			"response": []
		},
		{
			"name": "Articles List Home API",
			"request": {
				"method": "GET",
				"header": [],
				"url": {
					"raw": "http://apps.idealtech.com.my/api/articles_list_home.php?security_code=90af0fc8532a32f41b69d7097f2f1ca6",
					"protocol": "http",
					"host": [
						"apps",
						"idealtech",
						"com",
						"my"
					],
					"path": [
						"api",
						"articles_list_home.php"
					],
					"query": [
						{
							"key": "security_code",
							"value": "90af0fc8532a32f41b69d7097f2f1ca6"
						},
						{
							"key": "limit",
							"value": "10",
							"disabled": true
						},
						{
							"key": "offset",
							"value": "1",
							"disabled": true
						}
					]
				}
			},
			"response": []
		},
		{
			"name": "Member Order Message Timeline API",
			"request": {
				"method": "GET",
				"header": [],
				"url": {
					"raw": "http://apps.idealtech.com.my/api/member_order_timeline_list.php?security_code=90af0fc8532a32f41b69d7097f2f1ca6&MMID=3EDB323B-21C7-A7B9-3253-A265E2588E36&invno=ads",
					"protocol": "http",
					"host": [
						"apps",
						"idealtech",
						"com",
						"my"
					],
					"path": [
						"api",
						"member_order_timeline_list.php"
					],
					"query": [
						{
							"key": "security_code",
							"value": "90af0fc8532a32f41b69d7097f2f1ca6"
						},
						{
							"key": "MMID",
							"value": "3EDB323B-21C7-A7B9-3253-A265E2588E36"
						},
						{
							"key": "invno",
							"value": "ads"
						}
					]
				}
			},
			"response": []
		},
		{
			"name": "Member Login sms phone ",
			"request": {
				"method": "GET",
				"header": [],
				"url": {
					"raw": "http://apps.idealtech.com.my/api/member_login_generate_code.php?security_code=90af0fc8532a32f41b69d7097f2f1ca6&contact=0123706400",
					"protocol": "http",
					"host": [
						"apps",
						"idealtech",
						"com",
						"my"
					],
					"path": [
						"api",
						"member_login_generate_code.php"
					],
					"query": [
						{
							"key": "security_code",
							"value": "90af0fc8532a32f41b69d7097f2f1ca6"
						},
						{
							"key": "contact",
							"value": "0123706400"
						}
					]
				}
			},
			"response": []
		},
		{
			"name": "Member Login sms BY One Time Password",
			"request": {
				"method": "GET",
				"header": [],
				"url": {
					"raw": "http://apps.idealtech.com.my/api/member_login_by_tacs.php?security_code=90af0fc8532a32f41b69d7097f2f1ca6&contact=0123706400&tac=634955",
					"protocol": "http",
					"host": [
						"apps",
						"idealtech",
						"com",
						"my"
					],
					"path": [
						"api",
						"member_login_by_tacs.php"
					],
					"query": [
						{
							"key": "security_code",
							"value": "90af0fc8532a32f41b69d7097f2f1ca6"
						},
						{
							"key": "contact",
							"value": "0123706400"
						},
						{
							"key": "tac",
							"value": "634955"
						}
					]
				}
			},
			"response": []
		},
		{
			"name": "Gallery Detail API",
			"request": {
				"method": "GET",
				"header": [],
				"url": {
					"raw": "http://apps.idealtech.com.my/api/gallery_detail.php?security_code=90af0fc8532a32f41b69d7097f2f1ca6&photo_id=59&MMID=3EDB323B-21C7-A7B9-3253-A265E2588E36",
					"protocol": "http",
					"host": [
						"apps",
						"idealtech",
						"com",
						"my"
					],
					"path": [
						"api",
						"gallery_detail.php"
					],
					"query": [
						{
							"key": "security_code",
							"value": "90af0fc8532a32f41b69d7097f2f1ca6"
						},
						{
							"key": "photo_id",
							"value": "59"
						},
						{
							"key": "MMID",
							"value": "3EDB323B-21C7-A7B9-3253-A265E2588E36"
						}
					]
				}
			},
			"response": []
		},
		{
			"name": "gallery_detail_comment",
			"request": {
				"method": "GET",
				"header": [],
				"url": {
					"raw": "http://apps.idealtech.com.my/api/gallery_detail_comment.php?security_code=90af0fc8532a32f41b69d7097f2f1ca6&photo_id=65",
					"protocol": "http",
					"host": [
						"apps",
						"idealtech",
						"com",
						"my"
					],
					"path": [
						"api",
						"gallery_detail_comment.php"
					],
					"query": [
						{
							"key": "security_code",
							"value": "90af0fc8532a32f41b69d7097f2f1ca6"
						},
						{
							"key": "limit",
							"value": "20",
							"disabled": true
						},
						{
							"key": "offset",
							"value": "1",
							"disabled": true
						},
						{
							"key": "photo_id",
							"value": "65"
						},
						{
							"key": "MMID",
							"value": "3EDB323B-21C7-A7B9-3253-A265E2588E36",
							"disabled": true
						}
					]
				}
			},
			"response": []
		},
		{
			"name": "Gallery List New API (List Date)",
			"request": {
				"method": "GET",
				"header": [],
				"url": {
					"raw": "http://apps.idealtech.com.my/api/gallery_list_date.php?security_code=90af0fc8532a32f41b69d7097f2f1ca6",
					"protocol": "http",
					"host": [
						"apps",
						"idealtech",
						"com",
						"my"
					],
					"path": [
						"api",
						"gallery_list_date.php"
					],
					"query": [
						{
							"key": "security_code",
							"value": "90af0fc8532a32f41b69d7097f2f1ca6"
						}
					]
				}
			},
			"response": []
		},
		{
			"name": "Gallery List Photo API ",
			"request": {
				"method": "GET",
				"header": [],
				"url": {
					"raw": "http://apps.idealtech.com.my/api/gallery_list_photo.php?security_code=90af0fc8532a32f41b69d7097f2f1ca6&YearMonth=2019-OCT",
					"protocol": "http",
					"host": [
						"apps",
						"idealtech",
						"com",
						"my"
					],
					"path": [
						"api",
						"gallery_list_photo.php"
					],
					"query": [
						{
							"key": "security_code",
							"value": "90af0fc8532a32f41b69d7097f2f1ca6"
						},
						{
							"key": "YearMonth",
							"value": "2019-OCT"
						},
						{
							"key": "limit",
							"value": "20",
							"disabled": true
						},
						{
							"key": "offset",
							"value": "1",
							"disabled": true
						}
					]
				}
			},
			"response": []
		},
		{
			"name": "Member Message Update",
			"request": {
				"method": "GET",
				"header": [],
				"url": {
					"raw": "http://apps.idealtech.com.my/api/member_message_update.php?security_code=90af0fc8532a32f41b69d7097f2f1ca6&MMID=15B64DBC-59D8-715A-D26A-62E56A95E3A1",
					"protocol": "http",
					"host": [
						"apps",
						"idealtech",
						"com",
						"my"
					],
					"path": [
						"api",
						"member_message_update.php"
					],
					"query": [
						{
							"key": "security_code",
							"value": "90af0fc8532a32f41b69d7097f2f1ca6"
						},
						{
							"key": "MMID",
							"value": "15B64DBC-59D8-715A-D26A-62E56A95E3A1"
						}
					]
				}
			},
			"response": []
		},
		{
			"name": "Total Member Member Message",
			"request": {
				"method": "GET",
				"header": [],
				"url": {
					"raw": "http://apps.idealtech.com.my/api/member_message_total_unread.php?security_code=90af0fc8532a32f41b69d7097f2f1ca6&MMID=3EDB323B-21C7-A7B9-3253-A265E2588E36",
					"protocol": "http",
					"host": [
						"apps",
						"idealtech",
						"com",
						"my"
					],
					"path": [
						"api",
						"member_message_total_unread.php"
					],
					"query": [
						{
							"key": "security_code",
							"value": "90af0fc8532a32f41b69d7097f2f1ca6"
						},
						{
							"key": "MMID",
							"value": "3EDB323B-21C7-A7B9-3253-A265E2588E36"
						}
					]
				}
			},
			"response": []
		},
		{
			"name": "PURCHASE RECORD total unread",
			"request": {
				"method": "GET",
				"header": [],
				"url": {
					"raw": "http://apps.idealtech.com.my/api/member_order_timeline_total_unread.php?security_code=90af0fc8532a32f41b69d7097f2f1ca6&MMID=3EDB323B-21C7-A7B9-3253-A265E2588E36",
					"protocol": "http",
					"host": [
						"apps",
						"idealtech",
						"com",
						"my"
					],
					"path": [
						"api",
						"member_order_timeline_total_unread.php"
					],
					"query": [
						{
							"key": "security_code",
							"value": "90af0fc8532a32f41b69d7097f2f1ca6"
						},
						{
							"key": "MMID",
							"value": "3EDB323B-21C7-A7B9-3253-A265E2588E36"
						}
					]
				}
			},
			"response": []
		},
		{
			"name": "Total Member Enquiry Message Unread",
			"request": {
				"method": "GET",
				"header": [],
				"url": {
					"raw": "http://apps.idealtech.com.my/api/member_enquiry_total_unread.php?security_code=90af0fc8532a32f41b69d7097f2f1ca6&MMID=3EDB323B-21C7-A7B9-3253-A265E2588E36",
					"protocol": "http",
					"host": [
						"apps",
						"idealtech",
						"com",
						"my"
					],
					"path": [
						"api",
						"member_enquiry_total_unread.php"
					],
					"query": [
						{
							"key": "security_code",
							"value": "90af0fc8532a32f41b69d7097f2f1ca6"
						},
						{
							"key": "MMID",
							"value": "3EDB323B-21C7-A7B9-3253-A265E2588E36"
						}
					]
				}
			},
			"response": []
		},
		{
			"name": "Member Enquiry Message List API",
			"request": {
				"method": "GET",
				"header": [],
				"url": {
					"raw": "http://apps.idealtech.com.my/api/member_enquiry_list.php?security_code=90af0fc8532a32f41b69d7097f2f1ca6&MMID=3EDB323B-21C7-A7B9-3253-A265E2588E36",
					"protocol": "http",
					"host": [
						"apps",
						"idealtech",
						"com",
						"my"
					],
					"path": [
						"api",
						"member_enquiry_list.php"
					],
					"query": [
						{
							"key": "security_code",
							"value": "90af0fc8532a32f41b69d7097f2f1ca6"
						},
						{
							"key": "MMID",
							"value": "3EDB323B-21C7-A7B9-3253-A265E2588E36"
						}
					]
				}
			},
			"response": []
		},
		{
			"name": "Member Enquiry Message Create API",
			"request": {
				"method": "GET",
				"header": [],
				"url": {
					"raw": "http://apps.idealtech.com.my/api/member_enquiry_add.php?security_code=90af0fc8532a32f41b69d7097f2f1ca6&MMID=3EDB323B-21C7-A7B9-3253-A265E2588E36&message=",
					"protocol": "http",
					"host": [
						"apps",
						"idealtech",
						"com",
						"my"
					],
					"path": [
						"api",
						"member_enquiry_add.php"
					],
					"query": [
						{
							"key": "security_code",
							"value": "90af0fc8532a32f41b69d7097f2f1ca6"
						},
						{
							"key": "MMID",
							"value": "3EDB323B-21C7-A7B9-3253-A265E2588E36"
						},
						{
							"key": "message",
							"value": ""
						}
					]
				}
			},
			"response": []
		},
		{
			"name": "Member Enquiry Message Update",
			"request": {
				"method": "GET",
				"header": [],
				"url": {
					"raw": "http://apps.idealtech.com.my/api/member_enquiry_update.php?security_code=90af0fc8532a32f41b69d7097f2f1ca6&MMID=3EDB323B-21C7-A7B9-3253-A265E2588E36",
					"protocol": "http",
					"host": [
						"apps",
						"idealtech",
						"com",
						"my"
					],
					"path": [
						"api",
						"member_enquiry_update.php"
					],
					"query": [
						{
							"key": "security_code",
							"value": "90af0fc8532a32f41b69d7097f2f1ca6"
						},
						{
							"key": "MMID",
							"value": "3EDB323B-21C7-A7B9-3253-A265E2588E36"
						}
					]
				}
			},
			"response": []
		},
		{
			"name": "welcome api",
			"request": {
				"method": "GET",
				"header": [],
				"url": {
					"raw": "http://apps.idealtech.com.my/api/landing.php?security_code=90af0fc8532a32f41b69d7097f2f1ca6",
					"protocol": "http",
					"host": [
						"apps",
						"idealtech",
						"com",
						"my"
					],
					"path": [
						"api",
						"landing.php"
					],
					"query": [
						{
							"key": "security_code",
							"value": "90af0fc8532a32f41b69d7097f2f1ca6"
						}
					]
				}
			},
			"response": []
		},
		{
			"name": "aboutus",
			"request": {
				"method": "GET",
				"header": [],
				"url": {
					"raw": "http://apps.idealtech.com.my/api/about_us.php?security_code=90af0fc8532a32f41b69d7097f2f1ca6",
					"protocol": "http",
					"host": [
						"apps",
						"idealtech",
						"com",
						"my"
					],
					"path": [
						"api",
						"about_us.php"
					],
					"query": [
						{
							"key": "security_code",
							"value": "90af0fc8532a32f41b69d7097f2f1ca6"
						}
					]
				}
			},
			"response": []
		},
		{
			"name": "t and c",
			"request": {
				"method": "GET",
				"header": [],
				"url": {
					"raw": "http://apps.idealtech.com.my/api/terms.php?security_code=90af0fc8532a32f41b69d7097f2f1ca6",
					"protocol": "http",
					"host": [
						"apps",
						"idealtech",
						"com",
						"my"
					],
					"path": [
						"api",
						"terms.php"
					],
					"query": [
						{
							"key": "security_code",
							"value": "90af0fc8532a32f41b69d7097f2f1ca6"
						}
					]
				}
			},
			"response": []
		},
		{
			"name": "certificate",
			"request": {
				"method": "GET",
				"header": [],
				"url": {
					"raw": "http://apps.idealtech.com.my/api/awards.php?security_code=90af0fc8532a32f41b69d7097f2f1ca6",
					"protocol": "http",
					"host": [
						"apps",
						"idealtech",
						"com",
						"my"
					],
					"path": [
						"api",
						"awards.php"
					],
					"query": [
						{
							"key": "security_code",
							"value": "90af0fc8532a32f41b69d7097f2f1ca6"
						}
					]
				}
			},
			"response": []
		},
		{
			"name": "promotionProduct",
			"request": {
				"method": "GET",
				"header": [],
				"url": {
					"raw": "http://apps.idealtech.com.my/api/promotion_homeList.php?security_code=90af0fc8532a32f41b69d7097f2f1ca6",
					"protocol": "http",
					"host": [
						"apps",
						"idealtech",
						"com",
						"my"
					],
					"path": [
						"api",
						"promotion_homeList.php"
					],
					"query": [
						{
							"key": "security_code",
							"value": "90af0fc8532a32f41b69d7097f2f1ca6"
						}
					]
				}
			},
			"response": []
		},
		{
			"name": "Notification List",
			"request": {
				"method": "GET",
				"header": [],
				"url": {
					"raw": "http://apps.idealtech.com.my/api/notification_list.php?security_code=90af0fc8532a32f41b69d7097f2f1ca6&limit=20&offset=1",
					"protocol": "http",
					"host": [
						"apps",
						"idealtech",
						"com",
						"my"
					],
					"path": [
						"api",
						"notification_list.php"
					],
					"query": [
						{
							"key": "security_code",
							"value": "90af0fc8532a32f41b69d7097f2f1ca6"
						},
						{
							"key": "limit",
							"value": "20"
						},
						{
							"key": "offset",
							"value": "1"
						}
					]
				}
			},
			"response": []
		},
		{
			"name": "Notification Content",
			"request": {
				"method": "GET",
				"header": [],
				"url": {
					"raw": "http://apps.idealtech.com.my/api/notification.php?security_code=90af0fc8532a32f41b69d7097f2f1ca6&noti_id=6",
					"protocol": "http",
					"host": [
						"apps",
						"idealtech",
						"com",
						"my"
					],
					"path": [
						"api",
						"notification.php"
					],
					"query": [
						{
							"key": "security_code",
							"value": "90af0fc8532a32f41b69d7097f2f1ca6"
						},
						{
							"key": "noti_id",
							"value": "6"
						}
					]
				}
			},
			"response": []
		}
	],
	"protocolProfileBehavior": {}
}