-- Merging decision tree log ---
manifest
ADDED from /Users/waimunon/Project/local_project/golden_travel/myapp/android/app/src/main/AndroidManifest.xml:1:1-26:12
INJECTED from /Users/waimunon/Project/local_project/golden_travel/myapp/android/app/src/main/AndroidManifest.xml:1:1-26:12
INJECTED from /Users/waimunon/Project/local_project/golden_travel/myapp/android/app/src/main/AndroidManifest.xml:1:1-26:12
INJECTED from /Users/waimunon/Project/local_project/golden_travel/myapp/android/app/src/main/AndroidManifest.xml:1:1-26:12
MERGED from /Users/waimunon/Project/local_project/golden_travel/myapp/android/app/src/main/AndroidManifest.xml:1:1-26:12
MERGED from [:react-native-gesture-handler] /Users/waimunon/Project/local_project/golden_travel/myapp/node_modules/react-native-gesture-handler/android/build/intermediates/library_manifest/debug/AndroidManifest.xml:2:1-11:12
MERGED from [:react-native-vector-icons] /Users/waimunon/Project/local_project/golden_travel/myapp/node_modules/react-native-vector-icons/android/build/intermediates/library_manifest/debug/AndroidManifest.xml:2:1-11:12
MERGED from [com.facebook.react:react-native:0.59.2] /Users/waimunon/.gradle/caches/transforms-1/files-1.1/react-native-0.59.2.aar/d7293a98fed87a337ef097656cc04dbe/AndroidManifest.xml:2:1-13:12
MERGED from [com.android.support:appcompat-v7:28.0.0] /Users/waimunon/.gradle/caches/transforms-1/files-1.1/appcompat-v7-28.0.0.aar/105d874825dfdca9dc2de41d88c918ab/AndroidManifest.xml:17:1-22:12
MERGED from [com.android.support:support-fragment:28.0.0] /Users/waimunon/.gradle/caches/transforms-1/files-1.1/support-fragment-28.0.0.aar/709deadaeb3fef31026df8065426dcd6/AndroidManifest.xml:17:1-22:12
MERGED from [com.android.support:animated-vector-drawable:28.0.0] /Users/waimunon/.gradle/caches/transforms-1/files-1.1/animated-vector-drawable-28.0.0.aar/726e35e5b2c607305eb19f8aa470bb2a/AndroidManifest.xml:17:1-22:12
MERGED from [com.android.support:support-core-ui:28.0.0] /Users/waimunon/.gradle/caches/transforms-1/files-1.1/support-core-ui-28.0.0.aar/2136dfcdbbf02c1be12143a1d5c0ec89/AndroidManifest.xml:17:1-22:12
MERGED from [com.android.support:support-core-utils:28.0.0] /Users/waimunon/.gradle/caches/transforms-1/files-1.1/support-core-utils-28.0.0.aar/393399d46629bc36edcba91605d877c5/AndroidManifest.xml:17:1-22:12
MERGED from [com.android.support:support-vector-drawable:28.0.0] /Users/waimunon/.gradle/caches/transforms-1/files-1.1/support-vector-drawable-28.0.0.aar/239e8e897a90049b183c10d2745811d6/AndroidManifest.xml:17:1-22:12
MERGED from [com.android.support:loader:28.0.0] /Users/waimunon/.gradle/caches/transforms-1/files-1.1/loader-28.0.0.aar/5e824c04fd38ae217fa24acf23596201/AndroidManifest.xml:17:1-22:12
MERGED from [com.android.support:viewpager:28.0.0] /Users/waimunon/.gradle/caches/transforms-1/files-1.1/viewpager-28.0.0.aar/a483e08db668bebe7b0b4050adb02090/AndroidManifest.xml:17:1-22:12
MERGED from [com.android.support:coordinatorlayout:28.0.0] /Users/waimunon/.gradle/caches/transforms-1/files-1.1/coordinatorlayout-28.0.0.aar/8b36989d128bc04aa4fdccd8fc5a1729/AndroidManifest.xml:17:1-22:12
MERGED from [com.android.support:drawerlayout:28.0.0] /Users/waimunon/.gradle/caches/transforms-1/files-1.1/drawerlayout-28.0.0.aar/c7729bd733aa7583fc6cc561535ff410/AndroidManifest.xml:17:1-22:12
MERGED from [com.android.support:slidingpanelayout:28.0.0] /Users/waimunon/.gradle/caches/transforms-1/files-1.1/slidingpanelayout-28.0.0.aar/10673316d58dfcf99ecf1afc200ae25e/AndroidManifest.xml:17:1-22:12
MERGED from [com.android.support:customview:28.0.0] /Users/waimunon/.gradle/caches/transforms-1/files-1.1/customview-28.0.0.aar/cd05f637240eabbe5fbe2657c40df34f/AndroidManifest.xml:17:1-22:12
MERGED from [com.android.support:swiperefreshlayout:28.0.0] /Users/waimunon/.gradle/caches/transforms-1/files-1.1/swiperefreshlayout-28.0.0.aar/235b9a6a1e9373f3dfadc8831879a6b8/AndroidManifest.xml:17:1-22:12
MERGED from [com.android.support:asynclayoutinflater:28.0.0] /Users/waimunon/.gradle/caches/transforms-1/files-1.1/asynclayoutinflater-28.0.0.aar/9abed1c9ae2865c96b7950db52aac392/AndroidManifest.xml:17:1-22:12
MERGED from [com.android.support:support-compat:28.0.0] /Users/waimunon/.gradle/caches/transforms-1/files-1.1/support-compat-28.0.0.aar/0b3a70a8d0ad6253187a09e795aa4089/AndroidManifest.xml:17:1-24:12
MERGED from [com.android.support:versionedparcelable:28.0.0] /Users/waimunon/.gradle/caches/transforms-1/files-1.1/versionedparcelable-28.0.0.aar/7be6774db2e27231e11a9ed89c8da58e/AndroidManifest.xml:17:1-25:12
MERGED from [com.android.support:cursoradapter:28.0.0] /Users/waimunon/.gradle/caches/transforms-1/files-1.1/cursoradapter-28.0.0.aar/703c07d0ed75601e40451201799a150b/AndroidManifest.xml:17:1-22:12
MERGED from [android.arch.lifecycle:runtime:1.1.1] /Users/waimunon/.gradle/caches/transforms-1/files-1.1/runtime-1.1.1.aar/fabef97f1d990292f60b9303329584bb/AndroidManifest.xml:17:1-22:12
MERGED from [com.android.support:documentfile:28.0.0] /Users/waimunon/.gradle/caches/transforms-1/files-1.1/documentfile-28.0.0.aar/f7d49aa6e17c34d8f91cd98fa4305bbb/AndroidManifest.xml:17:1-22:12
MERGED from [com.android.support:localbroadcastmanager:28.0.0] /Users/waimunon/.gradle/caches/transforms-1/files-1.1/localbroadcastmanager-28.0.0.aar/1a506a2cdf10d589bd98ff1d285c0077/AndroidManifest.xml:17:1-22:12
MERGED from [com.android.support:print:28.0.0] /Users/waimunon/.gradle/caches/transforms-1/files-1.1/print-28.0.0.aar/7e17ba2493b669e63188522d11cf8df5/AndroidManifest.xml:17:1-22:12
MERGED from [android.arch.lifecycle:viewmodel:1.1.1] /Users/waimunon/.gradle/caches/transforms-1/files-1.1/viewmodel-1.1.1.aar/6b0a795224bdd4d6865b4715fa39f8f0/AndroidManifest.xml:17:1-22:12
MERGED from [android.arch.lifecycle:livedata:1.1.1] /Users/waimunon/.gradle/caches/transforms-1/files-1.1/livedata-1.1.1.aar/9cf26a6e075e34a6c3315e307121b0a4/AndroidManifest.xml:17:1-22:12
MERGED from [android.arch.lifecycle:livedata-core:1.1.1] /Users/waimunon/.gradle/caches/transforms-1/files-1.1/livedata-core-1.1.1.aar/87efc75bf89d8e6ef35b0e71c551c3ba/AndroidManifest.xml:17:1-22:12
MERGED from [android.arch.core:runtime:1.1.1] /Users/waimunon/.gradle/caches/transforms-1/files-1.1/runtime-1.1.1.aar/6217745ecc26622856d352b0431a6591/AndroidManifest.xml:17:1-22:12
MERGED from [com.android.support:interpolator:28.0.0] /Users/waimunon/.gradle/caches/transforms-1/files-1.1/interpolator-28.0.0.aar/c5dd625910ec29dda14ce2ff5df6bc94/AndroidManifest.xml:17:1-22:12
MERGED from [com.facebook.fresco:fresco:1.10.0] /Users/waimunon/.gradle/caches/transforms-1/files-1.1/fresco-1.10.0.aar/e02416a3debacee28e57b0af0f22332b/AndroidManifest.xml:2:1-9:12
MERGED from [com.facebook.fresco:imagepipeline-okhttp3:1.10.0] /Users/waimunon/.gradle/caches/transforms-1/files-1.1/imagepipeline-okhttp3-1.10.0.aar/906a043182757f8efde75e60534fe543/AndroidManifest.xml:2:1-9:12
MERGED from [com.facebook.fresco:drawee:1.10.0] /Users/waimunon/.gradle/caches/transforms-1/files-1.1/drawee-1.10.0.aar/6564ac2fcba062c1d7a6538c90051dae/AndroidManifest.xml:2:1-9:12
MERGED from [com.facebook.fresco:imagepipeline:1.10.0] /Users/waimunon/.gradle/caches/transforms-1/files-1.1/imagepipeline-1.10.0.aar/f7f3efc2f6d417bfd77672eee19fe515/AndroidManifest.xml:2:1-9:12
MERGED from [com.facebook.fresco:imagepipeline-base:1.10.0] /Users/waimunon/.gradle/caches/transforms-1/files-1.1/imagepipeline-base-1.10.0.aar/7c8055b115b91d718570a1443e8d1927/AndroidManifest.xml:2:1-9:12
MERGED from [com.facebook.soloader:soloader:0.6.0] /Users/waimunon/.gradle/caches/transforms-1/files-1.1/soloader-0.6.0.aar/ac650b4ee852ab2305e2b70e9f519859/AndroidManifest.xml:2:1-13:12
MERGED from [com.facebook.fresco:fbcore:1.10.0] /Users/waimunon/.gradle/caches/transforms-1/files-1.1/fbcore-1.10.0.aar/0d053af11dea3f1264f5bc4380b9847e/AndroidManifest.xml:2:1-9:12
INJECTED from /Users/waimunon/Project/local_project/golden_travel/myapp/android/app/src/debug/AndroidManifest.xml:2:1-8:12
INJECTED from /Users/waimunon/Project/local_project/golden_travel/myapp/android/app/src/debug/AndroidManifest.xml:2:1-8:12
INJECTED from /Users/waimunon/Project/local_project/golden_travel/myapp/android/app/src/debug/AndroidManifest.xml:2:1-8:12
	package
		ADDED from /Users/waimunon/Project/local_project/golden_travel/myapp/android/app/src/main/AndroidManifest.xml:2:3-22
		INJECTED from /Users/waimunon/Project/local_project/golden_travel/myapp/android/app/src/main/AndroidManifest.xml
		ADDED from /Users/waimunon/Project/local_project/golden_travel/myapp/android/app/src/main/AndroidManifest.xml:2:3-22
		INJECTED from /Users/waimunon/Project/local_project/golden_travel/myapp/android/app/src/debug/AndroidManifest.xml
	android:versionName
		INJECTED from /Users/waimunon/Project/local_project/golden_travel/myapp/android/app/src/main/AndroidManifest.xml
		ADDED from /Users/waimunon/Project/local_project/golden_travel/myapp/android/app/src/main/AndroidManifest.xml:1:1-26:12
		INJECTED from /Users/waimunon/Project/local_project/golden_travel/myapp/android/app/src/debug/AndroidManifest.xml
	xmlns:tools
		ADDED from /Users/waimunon/Project/local_project/golden_travel/myapp/android/app/src/debug/AndroidManifest.xml:3:5-51
	android:versionCode
		INJECTED from /Users/waimunon/Project/local_project/golden_travel/myapp/android/app/src/main/AndroidManifest.xml
		ADDED from /Users/waimunon/Project/local_project/golden_travel/myapp/android/app/src/main/AndroidManifest.xml:1:1-26:12
		INJECTED from /Users/waimunon/Project/local_project/golden_travel/myapp/android/app/src/debug/AndroidManifest.xml
	xmlns:android
		ADDED from /Users/waimunon/Project/local_project/golden_travel/myapp/android/app/src/main/AndroidManifest.xml:1:11-69
uses-permission#android.permission.INTERNET
ADDED from /Users/waimunon/Project/local_project/golden_travel/myapp/android/app/src/main/AndroidManifest.xml:4:5-67
	android:name
		ADDED from /Users/waimunon/Project/local_project/golden_travel/myapp/android/app/src/main/AndroidManifest.xml:4:22-64
application
ADDED from /Users/waimunon/Project/local_project/golden_travel/myapp/android/app/src/main/AndroidManifest.xml:6:5-24:19
MERGED from /Users/waimunon/Project/local_project/golden_travel/myapp/android/app/src/main/AndroidManifest.xml:6:5-24:19
MERGED from /Users/waimunon/Project/local_project/golden_travel/myapp/android/app/src/main/AndroidManifest.xml:6:5-24:19
MERGED from [com.facebook.react:react-native:0.59.2] /Users/waimunon/.gradle/caches/transforms-1/files-1.1/react-native-0.59.2.aar/d7293a98fed87a337ef097656cc04dbe/AndroidManifest.xml:11:5-20
MERGED from [com.facebook.react:react-native:0.59.2] /Users/waimunon/.gradle/caches/transforms-1/files-1.1/react-native-0.59.2.aar/d7293a98fed87a337ef097656cc04dbe/AndroidManifest.xml:11:5-20
MERGED from [com.android.support:support-compat:28.0.0] /Users/waimunon/.gradle/caches/transforms-1/files-1.1/support-compat-28.0.0.aar/0b3a70a8d0ad6253187a09e795aa4089/AndroidManifest.xml:22:5-94
MERGED from [com.android.support:support-compat:28.0.0] /Users/waimunon/.gradle/caches/transforms-1/files-1.1/support-compat-28.0.0.aar/0b3a70a8d0ad6253187a09e795aa4089/AndroidManifest.xml:22:5-94
MERGED from [com.android.support:versionedparcelable:28.0.0] /Users/waimunon/.gradle/caches/transforms-1/files-1.1/versionedparcelable-28.0.0.aar/7be6774db2e27231e11a9ed89c8da58e/AndroidManifest.xml:22:5-23:19
MERGED from [com.android.support:versionedparcelable:28.0.0] /Users/waimunon/.gradle/caches/transforms-1/files-1.1/versionedparcelable-28.0.0.aar/7be6774db2e27231e11a9ed89c8da58e/AndroidManifest.xml:22:5-23:19
MERGED from [com.facebook.soloader:soloader:0.6.0] /Users/waimunon/.gradle/caches/transforms-1/files-1.1/soloader-0.6.0.aar/ac650b4ee852ab2305e2b70e9f519859/AndroidManifest.xml:11:5-20
MERGED from [com.facebook.soloader:soloader:0.6.0] /Users/waimunon/.gradle/caches/transforms-1/files-1.1/soloader-0.6.0.aar/ac650b4ee852ab2305e2b70e9f519859/AndroidManifest.xml:11:5-20
	android:appComponentFactory
		ADDED from [com.android.support:support-compat:28.0.0] /Users/waimunon/.gradle/caches/transforms-1/files-1.1/support-compat-28.0.0.aar/0b3a70a8d0ad6253187a09e795aa4089/AndroidManifest.xml:22:18-91
	android:label
		ADDED from /Users/waimunon/Project/local_project/golden_travel/myapp/android/app/src/main/AndroidManifest.xml:8:7-39
		ADDED from /Users/waimunon/Project/local_project/golden_travel/myapp/android/app/src/main/AndroidManifest.xml:8:7-39
	tools:ignore
		ADDED from /Users/waimunon/Project/local_project/golden_travel/myapp/android/app/src/debug/AndroidManifest.xml:7:75-114
	android:roundIcon
		ADDED from /Users/waimunon/Project/local_project/golden_travel/myapp/android/app/src/main/AndroidManifest.xml:10:7-52
		ADDED from /Users/waimunon/Project/local_project/golden_travel/myapp/android/app/src/main/AndroidManifest.xml:10:7-52
	tools:targetApi
		ADDED from /Users/waimunon/Project/local_project/golden_travel/myapp/android/app/src/debug/AndroidManifest.xml:7:54-74
	android:icon
		ADDED from /Users/waimunon/Project/local_project/golden_travel/myapp/android/app/src/main/AndroidManifest.xml:9:7-41
		ADDED from /Users/waimunon/Project/local_project/golden_travel/myapp/android/app/src/main/AndroidManifest.xml:9:7-41
	android:allowBackup
		ADDED from /Users/waimunon/Project/local_project/golden_travel/myapp/android/app/src/main/AndroidManifest.xml:11:7-34
		ADDED from /Users/waimunon/Project/local_project/golden_travel/myapp/android/app/src/main/AndroidManifest.xml:11:7-34
	android:theme
		ADDED from /Users/waimunon/Project/local_project/golden_travel/myapp/android/app/src/main/AndroidManifest.xml:12:7-38
		ADDED from /Users/waimunon/Project/local_project/golden_travel/myapp/android/app/src/main/AndroidManifest.xml:12:7-38
	android:usesCleartextTraffic
		ADDED from /Users/waimunon/Project/local_project/golden_travel/myapp/android/app/src/debug/AndroidManifest.xml:7:18-53
	android:name
		ADDED from /Users/waimunon/Project/local_project/golden_travel/myapp/android/app/src/main/AndroidManifest.xml:7:7-38
		ADDED from /Users/waimunon/Project/local_project/golden_travel/myapp/android/app/src/main/AndroidManifest.xml:7:7-38
activity#com.myapp.MainActivity
ADDED from /Users/waimunon/Project/local_project/golden_travel/myapp/android/app/src/main/AndroidManifest.xml:13:7-22:18
	android:label
		ADDED from /Users/waimunon/Project/local_project/golden_travel/myapp/android/app/src/main/AndroidManifest.xml:15:9-41
	android:windowSoftInputMode
		ADDED from /Users/waimunon/Project/local_project/golden_travel/myapp/android/app/src/main/AndroidManifest.xml:17:9-51
	android:configChanges
		ADDED from /Users/waimunon/Project/local_project/golden_travel/myapp/android/app/src/main/AndroidManifest.xml:16:9-79
	android:name
		ADDED from /Users/waimunon/Project/local_project/golden_travel/myapp/android/app/src/main/AndroidManifest.xml:14:9-37
intent-filter#action:name:android.intent.action.MAIN+category:name:android.intent.category.LAUNCHER
ADDED from /Users/waimunon/Project/local_project/golden_travel/myapp/android/app/src/main/AndroidManifest.xml:18:9-21:25
action#android.intent.action.MAIN
ADDED from /Users/waimunon/Project/local_project/golden_travel/myapp/android/app/src/main/AndroidManifest.xml:19:13-65
	android:name
		ADDED from /Users/waimunon/Project/local_project/golden_travel/myapp/android/app/src/main/AndroidManifest.xml:19:21-62
category#android.intent.category.LAUNCHER
ADDED from /Users/waimunon/Project/local_project/golden_travel/myapp/android/app/src/main/AndroidManifest.xml:20:13-73
	android:name
		ADDED from /Users/waimunon/Project/local_project/golden_travel/myapp/android/app/src/main/AndroidManifest.xml:20:23-70
activity#com.facebook.react.devsupport.DevSettingsActivity
ADDED from /Users/waimunon/Project/local_project/golden_travel/myapp/android/app/src/main/AndroidManifest.xml:23:7-84
	android:name
		ADDED from /Users/waimunon/Project/local_project/golden_travel/myapp/android/app/src/main/AndroidManifest.xml:23:17-81
uses-sdk
INJECTED from /Users/waimunon/Project/local_project/golden_travel/myapp/android/app/src/main/AndroidManifest.xml reason: use-sdk injection requested
INJECTED from /Users/waimunon/Project/local_project/golden_travel/myapp/android/app/src/main/AndroidManifest.xml
INJECTED from /Users/waimunon/Project/local_project/golden_travel/myapp/android/app/src/main/AndroidManifest.xml
MERGED from [:react-native-gesture-handler] /Users/waimunon/Project/local_project/golden_travel/myapp/node_modules/react-native-gesture-handler/android/build/intermediates/library_manifest/debug/AndroidManifest.xml:7:5-9:41
MERGED from [:react-native-gesture-handler] /Users/waimunon/Project/local_project/golden_travel/myapp/node_modules/react-native-gesture-handler/android/build/intermediates/library_manifest/debug/AndroidManifest.xml:7:5-9:41
MERGED from [:react-native-vector-icons] /Users/waimunon/Project/local_project/golden_travel/myapp/node_modules/react-native-vector-icons/android/build/intermediates/library_manifest/debug/AndroidManifest.xml:7:5-9:41
MERGED from [:react-native-vector-icons] /Users/waimunon/Project/local_project/golden_travel/myapp/node_modules/react-native-vector-icons/android/build/intermediates/library_manifest/debug/AndroidManifest.xml:7:5-9:41
MERGED from [com.facebook.react:react-native:0.59.2] /Users/waimunon/.gradle/caches/transforms-1/files-1.1/react-native-0.59.2.aar/d7293a98fed87a337ef097656cc04dbe/AndroidManifest.xml:7:5-9:41
MERGED from [com.facebook.react:react-native:0.59.2] /Users/waimunon/.gradle/caches/transforms-1/files-1.1/react-native-0.59.2.aar/d7293a98fed87a337ef097656cc04dbe/AndroidManifest.xml:7:5-9:41
MERGED from [com.android.support:appcompat-v7:28.0.0] /Users/waimunon/.gradle/caches/transforms-1/files-1.1/appcompat-v7-28.0.0.aar/105d874825dfdca9dc2de41d88c918ab/AndroidManifest.xml:20:5-44
MERGED from [com.android.support:appcompat-v7:28.0.0] /Users/waimunon/.gradle/caches/transforms-1/files-1.1/appcompat-v7-28.0.0.aar/105d874825dfdca9dc2de41d88c918ab/AndroidManifest.xml:20:5-44
MERGED from [com.android.support:support-fragment:28.0.0] /Users/waimunon/.gradle/caches/transforms-1/files-1.1/support-fragment-28.0.0.aar/709deadaeb3fef31026df8065426dcd6/AndroidManifest.xml:20:5-44
MERGED from [com.android.support:support-fragment:28.0.0] /Users/waimunon/.gradle/caches/transforms-1/files-1.1/support-fragment-28.0.0.aar/709deadaeb3fef31026df8065426dcd6/AndroidManifest.xml:20:5-44
MERGED from [com.android.support:animated-vector-drawable:28.0.0] /Users/waimunon/.gradle/caches/transforms-1/files-1.1/animated-vector-drawable-28.0.0.aar/726e35e5b2c607305eb19f8aa470bb2a/AndroidManifest.xml:20:5-44
MERGED from [com.android.support:animated-vector-drawable:28.0.0] /Users/waimunon/.gradle/caches/transforms-1/files-1.1/animated-vector-drawable-28.0.0.aar/726e35e5b2c607305eb19f8aa470bb2a/AndroidManifest.xml:20:5-44
MERGED from [com.android.support:support-core-ui:28.0.0] /Users/waimunon/.gradle/caches/transforms-1/files-1.1/support-core-ui-28.0.0.aar/2136dfcdbbf02c1be12143a1d5c0ec89/AndroidManifest.xml:20:5-44
MERGED from [com.android.support:support-core-ui:28.0.0] /Users/waimunon/.gradle/caches/transforms-1/files-1.1/support-core-ui-28.0.0.aar/2136dfcdbbf02c1be12143a1d5c0ec89/AndroidManifest.xml:20:5-44
MERGED from [com.android.support:support-core-utils:28.0.0] /Users/waimunon/.gradle/caches/transforms-1/files-1.1/support-core-utils-28.0.0.aar/393399d46629bc36edcba91605d877c5/AndroidManifest.xml:20:5-44
MERGED from [com.android.support:support-core-utils:28.0.0] /Users/waimunon/.gradle/caches/transforms-1/files-1.1/support-core-utils-28.0.0.aar/393399d46629bc36edcba91605d877c5/AndroidManifest.xml:20:5-44
MERGED from [com.android.support:support-vector-drawable:28.0.0] /Users/waimunon/.gradle/caches/transforms-1/files-1.1/support-vector-drawable-28.0.0.aar/239e8e897a90049b183c10d2745811d6/AndroidManifest.xml:20:5-44
MERGED from [com.android.support:support-vector-drawable:28.0.0] /Users/waimunon/.gradle/caches/transforms-1/files-1.1/support-vector-drawable-28.0.0.aar/239e8e897a90049b183c10d2745811d6/AndroidManifest.xml:20:5-44
MERGED from [com.android.support:loader:28.0.0] /Users/waimunon/.gradle/caches/transforms-1/files-1.1/loader-28.0.0.aar/5e824c04fd38ae217fa24acf23596201/AndroidManifest.xml:20:5-44
MERGED from [com.android.support:loader:28.0.0] /Users/waimunon/.gradle/caches/transforms-1/files-1.1/loader-28.0.0.aar/5e824c04fd38ae217fa24acf23596201/AndroidManifest.xml:20:5-44
MERGED from [com.android.support:viewpager:28.0.0] /Users/waimunon/.gradle/caches/transforms-1/files-1.1/viewpager-28.0.0.aar/a483e08db668bebe7b0b4050adb02090/AndroidManifest.xml:20:5-44
MERGED from [com.android.support:viewpager:28.0.0] /Users/waimunon/.gradle/caches/transforms-1/files-1.1/viewpager-28.0.0.aar/a483e08db668bebe7b0b4050adb02090/AndroidManifest.xml:20:5-44
MERGED from [com.android.support:coordinatorlayout:28.0.0] /Users/waimunon/.gradle/caches/transforms-1/files-1.1/coordinatorlayout-28.0.0.aar/8b36989d128bc04aa4fdccd8fc5a1729/AndroidManifest.xml:20:5-44
MERGED from [com.android.support:coordinatorlayout:28.0.0] /Users/waimunon/.gradle/caches/transforms-1/files-1.1/coordinatorlayout-28.0.0.aar/8b36989d128bc04aa4fdccd8fc5a1729/AndroidManifest.xml:20:5-44
MERGED from [com.android.support:drawerlayout:28.0.0] /Users/waimunon/.gradle/caches/transforms-1/files-1.1/drawerlayout-28.0.0.aar/c7729bd733aa7583fc6cc561535ff410/AndroidManifest.xml:20:5-44
MERGED from [com.android.support:drawerlayout:28.0.0] /Users/waimunon/.gradle/caches/transforms-1/files-1.1/drawerlayout-28.0.0.aar/c7729bd733aa7583fc6cc561535ff410/AndroidManifest.xml:20:5-44
MERGED from [com.android.support:slidingpanelayout:28.0.0] /Users/waimunon/.gradle/caches/transforms-1/files-1.1/slidingpanelayout-28.0.0.aar/10673316d58dfcf99ecf1afc200ae25e/AndroidManifest.xml:20:5-44
MERGED from [com.android.support:slidingpanelayout:28.0.0] /Users/waimunon/.gradle/caches/transforms-1/files-1.1/slidingpanelayout-28.0.0.aar/10673316d58dfcf99ecf1afc200ae25e/AndroidManifest.xml:20:5-44
MERGED from [com.android.support:customview:28.0.0] /Users/waimunon/.gradle/caches/transforms-1/files-1.1/customview-28.0.0.aar/cd05f637240eabbe5fbe2657c40df34f/AndroidManifest.xml:20:5-44
MERGED from [com.android.support:customview:28.0.0] /Users/waimunon/.gradle/caches/transforms-1/files-1.1/customview-28.0.0.aar/cd05f637240eabbe5fbe2657c40df34f/AndroidManifest.xml:20:5-44
MERGED from [com.android.support:swiperefreshlayout:28.0.0] /Users/waimunon/.gradle/caches/transforms-1/files-1.1/swiperefreshlayout-28.0.0.aar/235b9a6a1e9373f3dfadc8831879a6b8/AndroidManifest.xml:20:5-44
MERGED from [com.android.support:swiperefreshlayout:28.0.0] /Users/waimunon/.gradle/caches/transforms-1/files-1.1/swiperefreshlayout-28.0.0.aar/235b9a6a1e9373f3dfadc8831879a6b8/AndroidManifest.xml:20:5-44
MERGED from [com.android.support:asynclayoutinflater:28.0.0] /Users/waimunon/.gradle/caches/transforms-1/files-1.1/asynclayoutinflater-28.0.0.aar/9abed1c9ae2865c96b7950db52aac392/AndroidManifest.xml:20:5-44
MERGED from [com.android.support:asynclayoutinflater:28.0.0] /Users/waimunon/.gradle/caches/transforms-1/files-1.1/asynclayoutinflater-28.0.0.aar/9abed1c9ae2865c96b7950db52aac392/AndroidManifest.xml:20:5-44
MERGED from [com.android.support:support-compat:28.0.0] /Users/waimunon/.gradle/caches/transforms-1/files-1.1/support-compat-28.0.0.aar/0b3a70a8d0ad6253187a09e795aa4089/AndroidManifest.xml:20:5-44
MERGED from [com.android.support:support-compat:28.0.0] /Users/waimunon/.gradle/caches/transforms-1/files-1.1/support-compat-28.0.0.aar/0b3a70a8d0ad6253187a09e795aa4089/AndroidManifest.xml:20:5-44
MERGED from [com.android.support:versionedparcelable:28.0.0] /Users/waimunon/.gradle/caches/transforms-1/files-1.1/versionedparcelable-28.0.0.aar/7be6774db2e27231e11a9ed89c8da58e/AndroidManifest.xml:20:5-44
MERGED from [com.android.support:versionedparcelable:28.0.0] /Users/waimunon/.gradle/caches/transforms-1/files-1.1/versionedparcelable-28.0.0.aar/7be6774db2e27231e11a9ed89c8da58e/AndroidManifest.xml:20:5-44
MERGED from [com.android.support:cursoradapter:28.0.0] /Users/waimunon/.gradle/caches/transforms-1/files-1.1/cursoradapter-28.0.0.aar/703c07d0ed75601e40451201799a150b/AndroidManifest.xml:20:5-44
MERGED from [com.android.support:cursoradapter:28.0.0] /Users/waimunon/.gradle/caches/transforms-1/files-1.1/cursoradapter-28.0.0.aar/703c07d0ed75601e40451201799a150b/AndroidManifest.xml:20:5-44
MERGED from [android.arch.lifecycle:runtime:1.1.1] /Users/waimunon/.gradle/caches/transforms-1/files-1.1/runtime-1.1.1.aar/fabef97f1d990292f60b9303329584bb/AndroidManifest.xml:20:5-44
MERGED from [android.arch.lifecycle:runtime:1.1.1] /Users/waimunon/.gradle/caches/transforms-1/files-1.1/runtime-1.1.1.aar/fabef97f1d990292f60b9303329584bb/AndroidManifest.xml:20:5-44
MERGED from [com.android.support:documentfile:28.0.0] /Users/waimunon/.gradle/caches/transforms-1/files-1.1/documentfile-28.0.0.aar/f7d49aa6e17c34d8f91cd98fa4305bbb/AndroidManifest.xml:20:5-44
MERGED from [com.android.support:documentfile:28.0.0] /Users/waimunon/.gradle/caches/transforms-1/files-1.1/documentfile-28.0.0.aar/f7d49aa6e17c34d8f91cd98fa4305bbb/AndroidManifest.xml:20:5-44
MERGED from [com.android.support:localbroadcastmanager:28.0.0] /Users/waimunon/.gradle/caches/transforms-1/files-1.1/localbroadcastmanager-28.0.0.aar/1a506a2cdf10d589bd98ff1d285c0077/AndroidManifest.xml:20:5-44
MERGED from [com.android.support:localbroadcastmanager:28.0.0] /Users/waimunon/.gradle/caches/transforms-1/files-1.1/localbroadcastmanager-28.0.0.aar/1a506a2cdf10d589bd98ff1d285c0077/AndroidManifest.xml:20:5-44
MERGED from [com.android.support:print:28.0.0] /Users/waimunon/.gradle/caches/transforms-1/files-1.1/print-28.0.0.aar/7e17ba2493b669e63188522d11cf8df5/AndroidManifest.xml:20:5-44
MERGED from [com.android.support:print:28.0.0] /Users/waimunon/.gradle/caches/transforms-1/files-1.1/print-28.0.0.aar/7e17ba2493b669e63188522d11cf8df5/AndroidManifest.xml:20:5-44
MERGED from [android.arch.lifecycle:viewmodel:1.1.1] /Users/waimunon/.gradle/caches/transforms-1/files-1.1/viewmodel-1.1.1.aar/6b0a795224bdd4d6865b4715fa39f8f0/AndroidManifest.xml:20:5-44
MERGED from [android.arch.lifecycle:viewmodel:1.1.1] /Users/waimunon/.gradle/caches/transforms-1/files-1.1/viewmodel-1.1.1.aar/6b0a795224bdd4d6865b4715fa39f8f0/AndroidManifest.xml:20:5-44
MERGED from [android.arch.lifecycle:livedata:1.1.1] /Users/waimunon/.gradle/caches/transforms-1/files-1.1/livedata-1.1.1.aar/9cf26a6e075e34a6c3315e307121b0a4/AndroidManifest.xml:20:5-44
MERGED from [android.arch.lifecycle:livedata:1.1.1] /Users/waimunon/.gradle/caches/transforms-1/files-1.1/livedata-1.1.1.aar/9cf26a6e075e34a6c3315e307121b0a4/AndroidManifest.xml:20:5-44
MERGED from [android.arch.lifecycle:livedata-core:1.1.1] /Users/waimunon/.gradle/caches/transforms-1/files-1.1/livedata-core-1.1.1.aar/87efc75bf89d8e6ef35b0e71c551c3ba/AndroidManifest.xml:20:5-44
MERGED from [android.arch.lifecycle:livedata-core:1.1.1] /Users/waimunon/.gradle/caches/transforms-1/files-1.1/livedata-core-1.1.1.aar/87efc75bf89d8e6ef35b0e71c551c3ba/AndroidManifest.xml:20:5-44
MERGED from [android.arch.core:runtime:1.1.1] /Users/waimunon/.gradle/caches/transforms-1/files-1.1/runtime-1.1.1.aar/6217745ecc26622856d352b0431a6591/AndroidManifest.xml:20:5-44
MERGED from [android.arch.core:runtime:1.1.1] /Users/waimunon/.gradle/caches/transforms-1/files-1.1/runtime-1.1.1.aar/6217745ecc26622856d352b0431a6591/AndroidManifest.xml:20:5-44
MERGED from [com.android.support:interpolator:28.0.0] /Users/waimunon/.gradle/caches/transforms-1/files-1.1/interpolator-28.0.0.aar/c5dd625910ec29dda14ce2ff5df6bc94/AndroidManifest.xml:20:5-44
MERGED from [com.android.support:interpolator:28.0.0] /Users/waimunon/.gradle/caches/transforms-1/files-1.1/interpolator-28.0.0.aar/c5dd625910ec29dda14ce2ff5df6bc94/AndroidManifest.xml:20:5-44
MERGED from [com.facebook.fresco:fresco:1.10.0] /Users/waimunon/.gradle/caches/transforms-1/files-1.1/fresco-1.10.0.aar/e02416a3debacee28e57b0af0f22332b/AndroidManifest.xml:5:5-7:41
MERGED from [com.facebook.fresco:fresco:1.10.0] /Users/waimunon/.gradle/caches/transforms-1/files-1.1/fresco-1.10.0.aar/e02416a3debacee28e57b0af0f22332b/AndroidManifest.xml:5:5-7:41
MERGED from [com.facebook.fresco:imagepipeline-okhttp3:1.10.0] /Users/waimunon/.gradle/caches/transforms-1/files-1.1/imagepipeline-okhttp3-1.10.0.aar/906a043182757f8efde75e60534fe543/AndroidManifest.xml:5:5-7:41
MERGED from [com.facebook.fresco:imagepipeline-okhttp3:1.10.0] /Users/waimunon/.gradle/caches/transforms-1/files-1.1/imagepipeline-okhttp3-1.10.0.aar/906a043182757f8efde75e60534fe543/AndroidManifest.xml:5:5-7:41
MERGED from [com.facebook.fresco:drawee:1.10.0] /Users/waimunon/.gradle/caches/transforms-1/files-1.1/drawee-1.10.0.aar/6564ac2fcba062c1d7a6538c90051dae/AndroidManifest.xml:5:5-7:41
MERGED from [com.facebook.fresco:drawee:1.10.0] /Users/waimunon/.gradle/caches/transforms-1/files-1.1/drawee-1.10.0.aar/6564ac2fcba062c1d7a6538c90051dae/AndroidManifest.xml:5:5-7:41
MERGED from [com.facebook.fresco:imagepipeline:1.10.0] /Users/waimunon/.gradle/caches/transforms-1/files-1.1/imagepipeline-1.10.0.aar/f7f3efc2f6d417bfd77672eee19fe515/AndroidManifest.xml:5:5-7:41
MERGED from [com.facebook.fresco:imagepipeline:1.10.0] /Users/waimunon/.gradle/caches/transforms-1/files-1.1/imagepipeline-1.10.0.aar/f7f3efc2f6d417bfd77672eee19fe515/AndroidManifest.xml:5:5-7:41
MERGED from [com.facebook.fresco:imagepipeline-base:1.10.0] /Users/waimunon/.gradle/caches/transforms-1/files-1.1/imagepipeline-base-1.10.0.aar/7c8055b115b91d718570a1443e8d1927/AndroidManifest.xml:5:5-7:41
MERGED from [com.facebook.fresco:imagepipeline-base:1.10.0] /Users/waimunon/.gradle/caches/transforms-1/files-1.1/imagepipeline-base-1.10.0.aar/7c8055b115b91d718570a1443e8d1927/AndroidManifest.xml:5:5-7:41
MERGED from [com.facebook.soloader:soloader:0.6.0] /Users/waimunon/.gradle/caches/transforms-1/files-1.1/soloader-0.6.0.aar/ac650b4ee852ab2305e2b70e9f519859/AndroidManifest.xml:7:5-9:41
MERGED from [com.facebook.soloader:soloader:0.6.0] /Users/waimunon/.gradle/caches/transforms-1/files-1.1/soloader-0.6.0.aar/ac650b4ee852ab2305e2b70e9f519859/AndroidManifest.xml:7:5-9:41
MERGED from [com.facebook.fresco:fbcore:1.10.0] /Users/waimunon/.gradle/caches/transforms-1/files-1.1/fbcore-1.10.0.aar/0d053af11dea3f1264f5bc4380b9847e/AndroidManifest.xml:5:5-7:41
MERGED from [com.facebook.fresco:fbcore:1.10.0] /Users/waimunon/.gradle/caches/transforms-1/files-1.1/fbcore-1.10.0.aar/0d053af11dea3f1264f5bc4380b9847e/AndroidManifest.xml:5:5-7:41
INJECTED from /Users/waimunon/Project/local_project/golden_travel/myapp/android/app/src/debug/AndroidManifest.xml
INJECTED from /Users/waimunon/Project/local_project/golden_travel/myapp/android/app/src/debug/AndroidManifest.xml
	android:targetSdkVersion
		INJECTED from /Users/waimunon/Project/local_project/golden_travel/myapp/android/app/src/main/AndroidManifest.xml
		INJECTED from /Users/waimunon/Project/local_project/golden_travel/myapp/android/app/src/debug/AndroidManifest.xml
	android:minSdkVersion
		INJECTED from /Users/waimunon/Project/local_project/golden_travel/myapp/android/app/src/main/AndroidManifest.xml
		INJECTED from /Users/waimunon/Project/local_project/golden_travel/myapp/android/app/src/debug/AndroidManifest.xml
uses-permission#android.permission.SYSTEM_ALERT_WINDOW
ADDED from /Users/waimunon/Project/local_project/golden_travel/myapp/android/app/src/debug/AndroidManifest.xml:5:5-77
	android:name
		ADDED from /Users/waimunon/Project/local_project/golden_travel/myapp/android/app/src/debug/AndroidManifest.xml:5:22-75
