{
  "project_info": {
    "project_number": "844231435196",
    "firebase_url": "https://ideal-tech.firebaseio.com",
    "project_id": "ideal-tech",
    "storage_bucket": "ideal-tech.appspot.com"
  },
  "client": [
    {
      "client_info": {
        "mobilesdk_app_id": "1:844231435196:android:6d72bbf72a264e265c81b9",
        "android_client_info": {
          "package_name": "com.idealtech.myapp"
        }
      },
      "oauth_client": [
        {
          "client_id": "844231435196-aqt6p0it6qie8t28ncfnloha1pe7tpej.apps.googleusercontent.com",
          "client_type": 3
        }
      ],
      "api_key": [
        {
          "current_key": "AIzaSyBhATo5Tp90A5-aQP3X6pLCurWQ7LbD1Lk"
        }
      ],
      "services": {
        "appinvite_service": {
          "other_platform_oauth_client": [
            {
              "client_id": "844231435196-aqt6p0it6qie8t28ncfnloha1pe7tpej.apps.googleusercontent.com",
              "client_type": 3
            }
          ]
        }
      }
    }
  ],
  "configuration_version": "1"
}